{
    "compilerOptions": {
        "allowSyntheticDefaultImports": false,
        "baseUrl": "./",
        "paths": {
            "Components/*":["src/components/*"],
            "Constants/*":["src/helpers/constants"],
            "Actions/*": ["src/stylactions/*"]
        }
    },
    "exclude": ["node_modules", "dist", "build"]
}